Biostat 203B Homework 2
…
The distribution of number of times of icu_stay is summarized with a histogram here. From the graph, we can see that the majority of people only stayed in ICU for 1 or 2 times, but a few people stayed there for more than 5 times.

For each subject_id, let’s only keep the first ICU stay in the tibble icustays_tble. (Hint: slice_min and slice_max may take long. Think alternative ways to achieve the same function.)

icu_uniq <- icustays_tble %>%
  arrange(subject_id, intime) %>%
  distinct(subject_id, .keep_all = TRUE)
icu_uniq

# A tibble: 53,150 × 8
   subject_id  hadm_id  stay_id first_careunit       last_…¹ intime             
        <dbl>    <dbl>    <dbl> <chr>                <chr>   <dttm>             
 1   10000032 29079034 39553978 Medical Intensive C… Medica… 2180-07-23 14:00:00
 2   10000980 26913865 39765666 Medical Intensive C… Medica… 2189-06-27 08:42:00
 3   10001217 24597018 37067082 Surgical Intensive … Surgic… 2157-11-20 19:18:02
 4   10001725 25563031 31205490 Medical/Surgical In… Medica… 2110-04-11 15:52:22
 5   10001884 26184834 37510196 Medical Intensive C… Medica… 2131-01-11 04:20:05
 6   10002013 23581541 39060235 Cardiac Vascular In… Cardia… 2160-05-18 10:00:53
 7   10002155 23822395 33685454 Coronary Care Unit … Corona… 2129-08-04 12:45:00
 8   10002223 22494570 39638202 Trauma SICU (TSICU)  Trauma… 2158-01-15 08:01:49
 9   10002348 22725460 32610785 Neuro Intermediate   Neuro … 2112-11-30 23:24:00
10   10002428 28662225 33987268 Medical Intensive C… Medica… 2156-04-12 16:24:18
# … with 53,140 more rows, 2 more variables: outtime <dttm>, los <dbl>, and
#   abbreviated variable name ¹​last_careunit
…
Import patients.csv.gz (https://mimic.mit.edu/docs/iv/modules/hosp/patients/) as a tibble patients_tble and only keep the patients who have a match in icustays_tble (according to subject_id).

patients_tble <- read_csv(str_c(mimic_path, "/core/patients.csv.gz"))
icu_patients <- patients_tble %>%
  arrange(subject_id) %>%
  semi_join(icu_uniq, by=c('subject_id'))
icu_patients

# A tibble: 53,150 × 6
   subject_id gender anchor_age anchor_year anchor_year_group dod       
        <dbl> <chr>       <dbl>       <dbl> <chr>             <date>    
 1   10000032 F              52        2180 2014 - 2016       NA        
 2   10000980 F              73        2186 2008 - 2010       NA        
 3   10001217 F              55        2157 2011 - 2013       NA        
 4   10001725 F              46        2110 2011 - 2013       NA        
 5   10001884 F              68        2122 2008 - 2010       2131-01-20
 6   10002013 F              53        2156 2008 - 2010       NA        
 7   10002155 F              80        2128 2008 - 2010       2131-03-10
 8   10002223 M              21        2158 2008 - 2010       NA        
 9   10002348 F              77        2112 2017 - 2019       NA        
10   10002428 F              80        2155 2011 - 2013       NA        
# … with 53,140 more rows
…
There are 30198826 rows in this filtered dataset. 

We are interested in the lab measurements of creatinine (50912), potassium (50971), sodium (50983), chloride (50902), bicarbonate (50882), hematocrit (51221), white blood cell count (51301), and glucose (50931). Retrieve a subset of labevents.csv.gz only containing these items for the patients in icustays_tble as a tibble labevents_tble.

Hint: labevents.csv.gz is a data file too big to be read in by the read_csv function in its default setting. Utilize the col_select option in the read_csv function to reduce the memory burden. It took my computer 5-10 minutes to ingest this file. If your computer really has trouble importing labevents.csv.gz, you can import from the reduced data file labevents_filtered_itemid.csv.gz.

lab_icu <- labevents %>%
  arrange(subject_id, itemid) %>%
  filter(itemid %in% 
           c(50912, 50971, 50983, 50902, 50882, 51221, 51301, 50931)) %>%
  filter(subject_id %in% icustays_tble$subject_id) %>%
  left_join(select(lab_dic, c(itemid, label)), by = 'itemid') %>%
  print(width = Inf)

# A tibble: 13,926,853 × 5
   subject_id itemid charttime           valuenum label      
        <dbl>  <dbl> <dttm>                 <dbl> <chr>      
 1   10000032  50882 2180-03-23 11:51:00       27 Bicarbonate
 2   10000032  50882 2180-05-06 22:25:00       27 Bicarbonate
 3   10000032  50882 2180-05-07 05:05:00       28 Bicarbonate
 4   10000032  50882 2180-06-03 12:00:00       28 Bicarbonate
 5   10000032  50882 2180-06-03 12:00:00       29 Bicarbonate
 6   10000032  50882 2180-06-22 11:15:00       26 Bicarbonate
 7   10000032  50882 2180-06-26 16:10:00       26 Bicarbonate
 8   10000032  50882 2180-06-27 05:10:00       25 Bicarbonate
 9   10000032  50882 2180-07-23 06:39:00       25 Bicarbonate
10   10000032  50882 2180-07-23 21:45:00       21 Bicarbonate
# … with 13,926,843 more rows
…
lab_icuonly2 <- lab_icuonly1 %>%
  select(-intime, -outtime, -charttime, -itemid) %>%
  pivot_wider(names_from = label, 
              values_from = valuenum) %>%
  print(width = Inf)

# A tibble: 52,038 × 10
   subject_id  stay_id Bicarbonate Chloride Creatinine Glucose Potassium Sodium
        <dbl>    <dbl>       <dbl>    <dbl>      <dbl>   <dbl>     <dbl>  <dbl>
 1   10000032 39553978          21      102        0.5     115       4.7    132
 2   10001217 37067082          23      104        0.4     113       3.6    138
 3   10001725 31205490          24      106        0.8     146       3.9    140
 4   10001884 37510196          33       96        1.1     148       4      136
 5   10002013 39060235          23      109        1.1      98       4      140
 6   10002155 33685454          25      106        0.9      95       4.5    139
 7   10002223 39638202          26      102        0.8      88       3.9    138
 8   10002348 32610785          23      107        0.8     127       4.8    142
 9   10002428 33987268          20       98        0.8      99       3.9    129
10   10002430 38392119          22      105        2.2     128       3.8    144
   Hematocrit `White Blood Cells`
        <dbl>               <dbl>
 1       NA                  NA  
 2       33.6                19  
 3       39.1                17  
 4       36                  18.4
 5       28.6                18.2
 6       37.9                 5.5
 7       32.5                10.1
 8       39.3                 4.3
 9       28.7                22.4
10       36.6                10.3
# … with 52,028 more rows
…
We are interested in the vitals for ICU patients: heart rate (220045), mean non-invasive blood pressure (220181), systolic non-invasive blood pressure (220179), body temperature in Fahrenheit (223761), and respiratory rate (220210). Retrieve a subset of chartevents.csv.gz only containing these items for the patients in icustays_tble as a tibble chartevents_tble.

Hint: chartevents.csv.gz is a data file too big to be read in by the read_csv function in its default setting. Utilize the col_select option in the read_csv function to reduce the memory burden. It took my computer >15 minutes to ingest this file. If your computer really has trouble importing chartevents.csv.gz, you can import from the reduced data file chartevents_filtered_itemid.csv.gz.

chartevents <- read_csv(str_c(mimic_path, "/icu/chartevents_filtered_itemid.csv.gz"))
#import dictionary
chart_dic <- read_csv(str_c(mimic_path, "/icu/d_items.csv.gz"))

chartevents_tble <- chartevents %>%
  filter(itemid %in% c(220045, 220181, 220179, 223761, 220210)) %>%
  filter(subject_id %in% icu_uniq$subject_id) %>%
  left_join(select(chart_dic, c(itemid, label)), by = 'itemid') %>%
  print(width = Inf)

# A tibble: 23,679,058 × 7
   subject_id  hadm_id  stay_id charttime           itemid valuenum
        <dbl>    <dbl>    <dbl> <dttm>               <dbl>    <dbl>
 1   10003700 28623837 30600691 2165-04-24 05:28:00 220179    152  
 2   10003700 28623837 30600691 2165-04-24 05:28:00 220181    110  
 3   10003700 28623837 30600691 2165-04-24 05:30:00 220045     65  
 4   10003700 28623837 30600691 2165-04-24 05:30:00 220210     14  
 5   10003700 28623837 30600691 2165-04-24 05:38:00 223761     97.6
 6   10003700 28623837 30600691 2165-04-24 06:00:00 220045     56  
 7   10003700 28623837 30600691 2165-04-24 06:00:00 220179    126  
 8   10003700 28623837 30600691 2165-04-24 06:00:00 220181     88  
 9   10003700 28623837 30600691 2165-04-24 06:00:00 220210     14  
10   10003700 28623837 30600691 2165-04-24 06:09:00 220045     55  
   label                               
   <chr>                               
 1 Non Invasive Blood Pressure systolic
 2 Non Invasive Blood Pressure mean    
 3 Heart Rate                          
 4 Respiratory Rate                    
 5 Temperature Fahrenheit              
 6 Heart Rate                          
 7 Non Invasive Blood Pressure systolic
 8 Non Invasive Blood Pressure mean    
 9 Respiratory Rate                    
10 Heart Rate                          
# … with 23,679,048 more rows
…
chart_icuonly2 <- chart_icuonly1 %>%
  select(-hadm_id, -stay_id.x, -stay_id.y, -intime, -outtime, -charttime, -itemid) %>%
  pivot_wider(names_from = label, 
              values_from = valuenum) %>%
  print(width = Inf)

# A tibble: 53,150 × 6
   subject_id `Heart Rate` `Non Invasive Blood Pressure systolic`
        <dbl>        <dbl>                                  <dbl>
 1   10000032           91                                     84
 2   10000980           77                                    150
 3   10001217           86                                    151
 4   10001725           55                                     73
 5   10001884           38                                    180
 6   10002013           80                                    104
 7   10002155           68                                    126
 8   10002223          100                                    123
 9   10002348           72                                    129
10   10002428          124                                     87
   `Non Invasive Blood Pressure mean` `Respiratory Rate`
                                <dbl>              <dbl>
 1                                 56                 24
 2                                 92                 23
 3                                104                 18
 4                                 59                 19
 5                                 46                 10
 6                                 77                 14
 7                                 78                 18
 8                                 80                 29
 9                                 85                 14
10                                 53                 25
   `Temperature Fahrenheit`
                      <dbl>
 1                     98.7
 2                     98  
 3                     98.5
 4                     97.7
 5                     98.1
 6                     97.2
 7                     95.9
 8                     98.6
 9                     97.9
10                    103. 
# … with 53,140 more rows
…
There is a slight trend that the female patients have a higher death rate than male patients.

For age, which is a numerical variable, it is a good idea to fit a linear regression

(age_mort <- mimic_icu_cohort %>%
  group_by(age_real) %>% summarise(num = n(), 
                                   death_num = sum(thirty_day_mort),
                                   mort_rate = death_num / num))

# A tibble: 83 × 4
   age_real   num death_num mort_rate
      <dbl> <int>     <int>     <dbl>
 1       19   129         5    0.0388
 2       20   229         5    0.0218
 3       21   209         3    0.0144
 4       22   222         8    0.0360
 5       23   241         6    0.0249
 6       24   203         9    0.0443
 7       25   224         4    0.0179
 8       26   259        12    0.0463
 9       27   216         6    0.0278
10       28   252         8    0.0317
# … with 73 more rows
…
